<?xml version="1.0" standalone="no"?>
<!DOCTYPE svg PUBLIC "-//W3C//DTD SVG 20010904//EN"
 "http://www.w3.org/TR/2001/REC-SVG-20010904/DTD/svg10.dtd">
<svg version="1.0" xmlns="http://www.w3.org/2000/svg"
 width="980.000000pt" height="654.000000pt" viewBox="0 0 980.000000 654.000000"
 preserveAspectRatio="xMidYMid meet">
<g transform="translate(0.000000,654.000000) scale(0.100000,-0.100000)"
fill="white" stroke="none">
<path d="M2480 5787 c-1318 -415 -2406 -760 -2418 -766 -83 -44 -79 -191 6
-235 15 -8 340 -112 722 -231 382 -119 701 -218 708 -220 8 -3 -3 -28 -34 -75
-192 -298 -334 -774 -361 -1215 -5 -94 -9 -112 -27 -127 -12 -9 -45 -36 -75
-60 -65 -51 -130 -142 -155 -218 -24 -72 -33 -235 -16 -308 20 -94 67 -180
134 -248 34 -34 70 -66 81 -72 19 -10 17 -30 -103 -924 -67 -502 -122 -932
-122 -955 0 -54 44 -108 101 -123 25 -7 189 -10 467 -8 423 3 427 3 458 25 17
13 39 38 48 58 17 34 14 59 -108 970 l-126 934 84 83 c120 119 158 209 159
378 1 98 -15 172 -52 250 -31 63 -112 155 -170 190 -48 30 -48 28 -26 214 30
256 90 491 175 687 58 133 164 288 231 338 l28 21 1393 -440 c765 -242 1405
-440 1420 -440 16 0 84 18 151 39 120 39 887 280 1402 441 143 44 307 96 365
115 58 18 292 92 520 164 1713 537 2369 745 2395 760 84 48 83 191 -3 235 -42
21 -4782 1508 -4822 1512 -26 3 -670 -196 -2430 -749z"/>
<path d="M2250 3493 c0 -16 -16 -300 -35 -632 -40 -687 -41 -756 -19 -832 54
-185 253 -370 562 -524 418 -208 997 -345 1677 -396 196 -14 727 -14 930 0
949 69 1726 320 2076 671 106 106 166 215 176 321 7 86 -68 1419 -81 1419 -5
0 -559 -173 -1230 -385 -672 -211 -1245 -389 -1275 -396 -30 -6 -102 -9 -165
-7 -110 4 -114 5 -531 137 -382 121 -1330 420 -1765 557 -96 30 -202 64 -234
75 -78 25 -86 24 -86 -8z"/>
</g>
</svg>
