<?xml version="1.0" encoding="iso-8859-1"?>
<!-- Generator: Adobe Illustrator 16.0.0, SVG Export Plug-In . SVG Version: 6.00 Build 0)  -->
<!DOCTYPE svg PUBLIC "-//W3C//DTD SVG 1.1//EN" "http://www.w3.org/Graphics/SVG/1.1/DTD/svg11.dtd">
<svg version="1.1" id="Capa_1" xmlns="http://www.w3.org/2000/svg" xmlns:xlink="http://www.w3.org/1999/xlink" x="0px" y="0px"
	 width="551.366px" height="551.367px" viewBox="0 0 551.366 551.367" style="enable-background:new 0 0 551.366 551.367;"
	 xml:space="preserve">
	<g fill="white">
		<path d="M534.933,199.625l-149.396-34.29L292.905,22.494c-9.511-14.67-24.933-14.67-34.443,0L165.83,165.335l-149.396,34.29
			C-0.604,203.536-5.126,217.41,6.33,230.611l110.276,127.045L99.733,516.262c-1.848,17.387,10.214,27.362,26.94,22.282
			l149.01-45.221l149.004,45.227c16.726,5.08,28.788-4.901,26.94-22.282l-16.873-158.606l110.276-127.045
			C556.494,217.41,551.971,203.536,534.933,199.625z"/>
	</g>

</svg>
