<?xml version="1.0" standalone="no"?>
<!DOCTYPE svg PUBLIC "-//W3C//DTD SVG 20010904//EN"
 "http://www.w3.org/TR/2001/REC-SVG-20010904/DTD/svg10.dtd">
<svg version="1.0" xmlns="http://www.w3.org/2000/svg"
 width="1600.000000pt" height="1600.000000pt" viewBox="0 0 1600.000000 1600.000000"
 preserveAspectRatio="xMidYMid meet">
<metadata>
Created by potrace 1.15, written by Peter Selinger 2001-2017
</metadata>
<g transform="translate(0.000000,1600.000000) scale(0.100000,-0.100000)"
fill="white" stroke="none">
<path d="M7675 15373 c-932 -37 -1812 -240 -2680 -618 -165 -72 -550 -270
-720 -370 -871 -510 -1638 -1203 -2229 -2013 -563 -771 -983 -1674 -1201
-2587 -139 -581 -199 -1094 -199 -1710 0 -464 27 -797 100 -1224 505 -2974
2810 -5348 5770 -5940 1307 -262 2681 -157 3925 299 1009 370 1897 937 2665
1705 258 258 334 347 385 450 123 249 76 527 -121 726 -222 223 -559 251 -819
69 -32 -23 -119 -107 -192 -187 -469 -512 -1066 -961 -1704 -1283 -670 -338
-1322 -529 -2105 -616 -193 -21 -794 -30 -1012 -15 -1152 81 -2219 467 -3135
1134 -1310 952 -2178 2380 -2418 3977 -74 487 -85 1089 -30 1580 113 996 475
1962 1040 2770 344 492 782 953 1252 1318 907 704 1949 1116 3133 1239 208 21
876 25 1075 5 1296 -127 2375 -574 3370 -1397 72 -59 258 -237 415 -394 157
-158 299 -297 317 -309 146 -103 347 -138 527 -92 113 29 189 73 282 165 94
93 154 200 180 325 37 175 -10 373 -123 516 -77 96 -352 381 -504 521 -761
701 -1598 1208 -2550 1546 -847 301 -1798 446 -2694 410z"/>
<path d="M12230 10924 c-140 -30 -303 -137 -381 -251 -82 -118 -119 -235 -119
-373 0 -106 18 -180 71 -290 41 -85 44 -87 647 -692 l606 -608 -2925 0 c-2860
0 -2927 0 -3001 -19 -192 -49 -339 -173 -423 -356 -18 -38 -38 -92 -45 -120
-17 -69 -14 -228 5 -300 59 -223 239 -402 461 -459 56 -14 354 -16 2995 -16
l2933 0 -605 -607 c-579 -582 -607 -611 -646 -688 -57 -111 -76 -189 -76 -310
1 -177 58 -311 188 -440 129 -130 263 -186 440 -187 159 -1 285 42 410 143 33
26 578 567 1211 1201 l1152 1153 41 85 c46 94 71 194 71 285 0 121 -47 266
-114 358 -17 23 -562 571 -1211 1218 l-1180 1176 -85 42 c-139 68 -277 86
-420 55z"/>
</g>
</svg>
